^C:\USERS\패닉\DOCUMENTS\VISUAL STUDIO 2015\PROJECTS\NOXCMDLINE\NOXCMDLINE\CALLBAK.C
/c /ZI /nologo /W3 /WX- /sdl /Od /Oy- /D WIN32 /D _DEBUG /D _WINDOWS /D _UNICODE /D UNICODE /Gm /EHsc /RTC1 /MDd /GS /fp:precise /Zc:wchar_t /Zc:forScope /Zc:inline /Fo"DEBUG\\" /Fd"DEBUG\VC140.PDB" /Gd /TC /analyze- C:\USERS\패닉\DOCUMENTS\VISUAL STUDIO 2015\PROJECTS\NOXCMDLINE\NOXCMDLINE\CALLBAK.C
^C:\USERS\패닉\DOCUMENTS\VISUAL STUDIO 2015\PROJECTS\NOXCMDLINE\NOXCMDLINE\NOX_PROC.C
/c /ZI /nologo /W3 /WX- /sdl /Od /Oy- /D WIN32 /D _DEBUG /D _WINDOWS /D _UNICODE /D UNICODE /Gm /EHsc /RTC1 /MDd /GS /fp:precise /Zc:wchar_t /Zc:forScope /Zc:inline /Fo"DEBUG\\" /Fd"DEBUG\VC140.PDB" /Gd /TC /analyze- C:\USERS\패닉\DOCUMENTS\VISUAL STUDIO 2015\PROJECTS\NOXCMDLINE\NOXCMDLINE\NOX_PROC.C
^C:\USERS\패닉\DOCUMENTS\VISUAL STUDIO 2015\PROJECTS\NOXCMDLINE\NOXCMDLINE\WMAIN.C
/c /ZI /nologo /W3 /WX- /sdl /Od /Oy- /D WIN32 /D _DEBUG /D _WINDOWS /D _UNICODE /D UNICODE /Gm /EHsc /RTC1 /MDd /GS /fp:precise /Zc:wchar_t /Zc:forScope /Zc:inline /Fo"DEBUG\\" /Fd"DEBUG\VC140.PDB" /Gd /TC /analyze- C:\USERS\패닉\DOCUMENTS\VISUAL STUDIO 2015\PROJECTS\NOXCMDLINE\NOXCMDLINE\WMAIN.C
^C:\USERS\패닉\DOCUMENTS\VISUAL STUDIO 2015\PROJECTS\NOXCMDLINE\NOXCMDLINE\APP_GUI.C
/c /ZI /nologo /W3 /WX- /sdl /Od /Oy- /D WIN32 /D _DEBUG /D _WINDOWS /D _UNICODE /D UNICODE /Gm /EHsc /RTC1 /MDd /GS /fp:precise /Zc:wchar_t /Zc:forScope /Zc:inline /Fo"DEBUG\\" /Fd"DEBUG\VC140.PDB" /Gd /TC /analyze- C:\USERS\패닉\DOCUMENTS\VISUAL STUDIO 2015\PROJECTS\NOXCMDLINE\NOXCMDLINE\APP_GUI.C
^C:\USERS\패닉\DOCUMENTS\VISUAL STUDIO 2015\PROJECTS\NOXCMDLINE\NOXCMDLINE\NOX_FUNC.C
/c /ZI /nologo /W3 /WX- /sdl /Od /Oy- /D WIN32 /D _DEBUG /D _WINDOWS /D _UNICODE /D UNICODE /Gm /EHsc /RTC1 /MDd /GS /fp:precise /Zc:wchar_t /Zc:forScope /Zc:inline /Fo"DEBUG\\" /Fd"DEBUG\VC140.PDB" /Gd /TC /analyze- C:\USERS\패닉\DOCUMENTS\VISUAL STUDIO 2015\PROJECTS\NOXCMDLINE\NOXCMDLINE\NOX_FUNC.C
